SEARCH_DIR(C:\Prace2\software\Lazarus\pascalscada\lib\i386-win32\)
SEARCH_DIR(C:\lazarus\components\rtticontrols\lib\i386-win32\win32\)
SEARCH_DIR(C:\lazarus\components\tachart\lib\i386-win32\win32\)
SEARCH_DIR(C:\lazarus\components\memds\lib\i386-win32\win32\)
SEARCH_DIR(C:\lazarus\components\tdbf\lib\i386-win32\win32\)
SEARCH_DIR(C:\Prace2\software\Lazarus\pascalscada\zeoslib\packages\lazarus\lib\i386-win32\)
SEARCH_DIR(C:\lazarus\components\sqldb\lib\i386-win32\win32\)
SEARCH_DIR(C:\lazarus\components\lazreport\source\lib\i386-win32\)
SEARCH_DIR(C:\lazarus\components\printers\lib\i386-win32\win32\)
SEARCH_DIR(C:\lazarus\components\synedit\units\i386-win32\)
SEARCH_DIR(C:\lazarus\ideintf\units\i386-win32\)
SEARCH_DIR(C:\lazarus\lcl\units\i386-win32\)
SEARCH_DIR(C:\lazarus\lcl\units\i386-win32\win32\)
SEARCH_DIR(C:\lazarus\packager\units\i386-win32\)
SEARCH_DIR(.\)
SEARCH_DIR(C:\lazarus\fpc\2.4.2\units\i386-win32\rtl\)
SEARCH_DIR(C:\lazarus\fpc\2.4.2\units\i386-win32\zlib\)
SEARCH_DIR(C:\lazarus\fpc\2.4.2\units\i386-win32\winunits-jedi\)
SEARCH_DIR(C:\lazarus\fpc\2.4.2\units\i386-win32\winunits-base\)
SEARCH_DIR(C:\lazarus\fpc\2.4.2\units\i386-win32\unzip\)
SEARCH_DIR(C:\lazarus\fpc\2.4.2\units\i386-win32\tcl\)
SEARCH_DIR(C:\lazarus\fpc\2.4.2\units\i386-win32\symbolic\)
SEARCH_DIR(C:\lazarus\fpc\2.4.2\units\i386-win32\sqlite\)
SEARCH_DIR(C:\lazarus\fpc\2.4.2\units\i386-win32\sdl\)
SEARCH_DIR(C:\lazarus\fpc\2.4.2\units\i386-win32\rsvg\)
SEARCH_DIR(C:\lazarus\fpc\2.4.2\units\i386-win32\regexpr\)
SEARCH_DIR(C:\lazarus\fpc\2.4.2\units\i386-win32\pxlib\)
SEARCH_DIR(C:\lazarus\fpc\2.4.2\units\i386-win32\postgres\)
SEARCH_DIR(C:\lazarus\fpc\2.4.2\units\i386-win32\pcap\)
SEARCH_DIR(C:\lazarus\fpc\2.4.2\units\i386-win32\paszlib\)
SEARCH_DIR(C:\lazarus\fpc\2.4.2\units\i386-win32\pasjpeg\)
SEARCH_DIR(C:\lazarus\fpc\2.4.2\units\i386-win32\oracle\)
SEARCH_DIR(C:\lazarus\fpc\2.4.2\units\i386-win32\openssl\)
SEARCH_DIR(C:\lazarus\fpc\2.4.2\units\i386-win32\opengl\)
SEARCH_DIR(C:\lazarus\fpc\2.4.2\units\i386-win32\opencl\)
SEARCH_DIR(C:\lazarus\fpc\2.4.2\units\i386-win32\openal\)
SEARCH_DIR(C:\lazarus\fpc\2.4.2\units\i386-win32\oggvorbis\)
SEARCH_DIR(C:\lazarus\fpc\2.4.2\units\i386-win32\odbc\)
SEARCH_DIR(C:\lazarus\fpc\2.4.2\units\i386-win32\numlib\)
SEARCH_DIR(C:\lazarus\fpc\2.4.2\units\i386-win32\mysql\)
SEARCH_DIR(C:\lazarus\fpc\2.4.2\units\i386-win32\mad\)
SEARCH_DIR(C:\lazarus\fpc\2.4.2\units\i386-win32\libxml2\)
SEARCH_DIR(C:\lazarus\fpc\2.4.2\units\i386-win32\libpng\)
SEARCH_DIR(C:\lazarus\fpc\2.4.2\units\i386-win32\libgd\)
SEARCH_DIR(C:\lazarus\fpc\2.4.2\units\i386-win32\lexyacc\)
SEARCH_DIR(C:\lazarus\fpc\2.4.2\units\i386-win32\imagemagick\)
SEARCH_DIR(C:\lazarus\fpc\2.4.2\units\i386-win32\ibase\)
SEARCH_DIR(C:\lazarus\fpc\2.4.2\units\i386-win32\httpd20\)
SEARCH_DIR(C:\lazarus\fpc\2.4.2\units\i386-win32\httpd13\)
SEARCH_DIR(C:\lazarus\fpc\2.4.2\units\i386-win32\hash\)
SEARCH_DIR(C:\lazarus\fpc\2.4.2\units\i386-win32\gtk2\)
SEARCH_DIR(C:\lazarus\fpc\2.4.2\units\i386-win32\gtk1\)
SEARCH_DIR(C:\lazarus\fpc\2.4.2\units\i386-win32\graph\)
SEARCH_DIR(C:\lazarus\fpc\2.4.2\units\i386-win32\gmp\)
SEARCH_DIR(C:\lazarus\fpc\2.4.2\units\i386-win32\gdbint\)
SEARCH_DIR(C:\lazarus\fpc\2.4.2\units\i386-win32\fv\)
SEARCH_DIR(C:\lazarus\fpc\2.4.2\units\i386-win32\fppkg\)
SEARCH_DIR(C:\lazarus\fpc\2.4.2\units\i386-win32\fpmkunit\)
SEARCH_DIR(C:\lazarus\fpc\2.4.2\units\i386-win32\fpgtk\)
SEARCH_DIR(C:\lazarus\fpc\2.4.2\units\i386-win32\fftw\)
SEARCH_DIR(C:\lazarus\fpc\2.4.2\units\i386-win32\fcl-xml\)
SEARCH_DIR(C:\lazarus\fpc\2.4.2\units\i386-win32\fcl-web\)
SEARCH_DIR(C:\lazarus\fpc\2.4.2\units\i386-win32\fcl-res\)
SEARCH_DIR(C:\lazarus\fpc\2.4.2\units\i386-win32\fcl-registry\)
SEARCH_DIR(C:\lazarus\fpc\2.4.2\units\i386-win32\fcl-process\)
SEARCH_DIR(C:\lazarus\fpc\2.4.2\units\i386-win32\fcl-passrc\)
SEARCH_DIR(C:\lazarus\fpc\2.4.2\units\i386-win32\fcl-net\)
SEARCH_DIR(C:\lazarus\fpc\2.4.2\units\i386-win32\fcl-json\)
SEARCH_DIR(C:\lazarus\fpc\2.4.2\units\i386-win32\fcl-image\)
SEARCH_DIR(C:\lazarus\fpc\2.4.2\units\i386-win32\fcl-fpcunit\)
SEARCH_DIR(C:\lazarus\fpc\2.4.2\units\i386-win32\fcl-extra\)
SEARCH_DIR(C:\lazarus\fpc\2.4.2\units\i386-win32\fcl-db\)
SEARCH_DIR(C:\lazarus\fpc\2.4.2\units\i386-win32\fcl-base\)
SEARCH_DIR(C:\lazarus\fpc\2.4.2\units\i386-win32\fastcgi\)
SEARCH_DIR(C:\lazarus\fpc\2.4.2\units\i386-win32\chm\)
SEARCH_DIR(C:\lazarus\fpc\2.4.2\units\i386-win32\cdrom\)
SEARCH_DIR(C:\lazarus\fpc\2.4.2\units\i386-win32\cairo\)
SEARCH_DIR(C:\lazarus\fpc\2.4.2\units\i386-win32\bzip2\)
SEARCH_DIR(C:\lazarus\fpc\2.4.2\units\i386-win32\bfd\)
SEARCH_DIR(C:\lazarus\fpc\2.4.2\units\i386-win32\a52\)
SEARCH_DIR(C:\lazarus\fpc\2.4.2\units\i386-win32\)
SEARCH_DIR(C:\lazarus\fpc\2.4.2\units\i386-win32\httpd22\)
SEARCH_DIR(C:\lazarus\fpc\2.4.2\bin\i386-win32\)
INPUT(
"C:\Prace\Arkon Flow Systems, s.r.o\Projects\verimag2\Verificator_SW\lib\i386-win32\Veri_SW.o"
"C:\Prace\Arkon Flow Systems, s.r.o\Projects\verimag2\Verificator_SW\lib\i386-win32\Veri_SW.or"
C:\lazarus\fpc\2.4.2\units\i386-win32\rtl\system.o
C:\lazarus\fpc\2.4.2\units\i386-win32\rtl\fpintres.o
C:\lazarus\fpc\2.4.2\units\i386-win32\rtl\objpas.o
C:\lazarus\lcl\units\i386-win32\win32\interfaces.o
C:\lazarus\lcl\units\i386-win32\forms.o
C:\lazarus\components\rtticontrols\lib\i386-win32\win32\runtimetypeinfocontrols.o
C:\Prace2\software\Lazarus\pascalscada\lib\i386-win32\pascalscada.o
C:\Prace2\software\Lazarus\pascalscada\zeoslib\packages\lazarus\lib\i386-win32\zcomponent.o
"C:\Prace\Arkon Flow Systems, s.r.o\Projects\verimag2\Verificator_SW\lib\i386-win32\mainu.o"
C:\lazarus\components\tachart\lib\i386-win32\win32\tachartlazaruspkg.o
C:\lazarus\components\memds\lib\i386-win32\win32\memdslaz.o
C:\lazarus\components\tdbf\lib\i386-win32\win32\dbflaz.o
C:\lazarus\components\printers\lib\i386-win32\win32\printer4lazarus.o
C:\lazarus\components\lazreport\source\lib\i386-win32\lazreport.o
"C:\Prace\Arkon Flow Systems, s.r.o\Projects\verimag2\Verificator_SW\lib\i386-win32\graph.o"
"C:\Prace\Arkon Flow Systems, s.r.o\Projects\verimag2\Verificator_SW\lib\i386-win32\printu.o"
C:\lazarus\lcl\units\i386-win32\interfacebase.o
C:\lazarus\fpc\2.4.2\units\i386-win32\rtl\types.o
C:\lazarus\fpc\2.4.2\units\i386-win32\rtl\classes.o
C:\lazarus\fpc\2.4.2\units\i386-win32\rtl\sysutils.o
C:\lazarus\fpc\2.4.2\units\i386-win32\rtl\math.o
C:\lazarus\lcl\units\i386-win32\lclstrconsts.o
C:\lazarus\lcl\units\i386-win32\lcltype.o
C:\lazarus\lcl\units\i386-win32\lclproc.o
C:\lazarus\lcl\units\i386-win32\lmessages.o
C:\lazarus\lcl\units\i386-win32\graphtype.o
C:\lazarus\lcl\units\i386-win32\graphmath.o
C:\lazarus\lcl\units\i386-win32\themes.o
C:\lazarus\fpc\2.4.2\units\i386-win32\rtl\windows.o
C:\lazarus\fpc\2.4.2\units\i386-win32\rtl\rtlconsts.o
C:\lazarus\fpc\2.4.2\units\i386-win32\rtl\typinfo.o
C:\lazarus\fpc\2.4.2\units\i386-win32\rtl\sysconst.o
C:\lazarus\lcl\units\i386-win32\fpcadds.o
C:\lazarus\lcl\units\i386-win32\avglvltree.o
C:\lazarus\lcl\units\i386-win32\fileutil.o
C:\lazarus\lcl\units\i386-win32\wsreferences.o
C:\lazarus\lcl\units\i386-win32\masks.o
C:\lazarus\fpc\2.4.2\units\i386-win32\fcl-base\contnrs.o
C:\lazarus\fpc\2.4.2\units\i386-win32\fcl-base\gettext.o
C:\lazarus\fpc\2.4.2\units\i386-win32\rtl\messages.o
C:\lazarus\lcl\units\i386-win32\tmschema.o
C:\lazarus\lcl\units\i386-win32\lclintf.o
C:\lazarus\lcl\units\i386-win32\graphics.o
C:\lazarus\lcl\units\i386-win32\imglist.o
C:\lazarus\fpc\2.4.2\units\i386-win32\winunits-base\shellapi.o
C:\lazarus\lcl\units\i386-win32\lresources.o
C:\lazarus\lcl\units\i386-win32\utf8process.o
C:\lazarus\lcl\units\i386-win32\maps.o
C:\lazarus\fpc\2.4.2\units\i386-win32\winunits-base\activex.o
C:\lazarus\fpc\2.4.2\units\i386-win32\rtl\variants.o
C:\lazarus\fpc\2.4.2\units\i386-win32\rtl\ctypes.o
C:\lazarus\fpc\2.4.2\units\i386-win32\rtl\varutils.o
C:\lazarus\lcl\units\i386-win32\dynqueue.o
C:\lazarus\lcl\units\i386-win32\lazconfigstorage.o
C:\lazarus\fpc\2.4.2\units\i386-win32\fcl-process\process.o
C:\lazarus\fpc\2.4.2\units\i386-win32\fcl-process\pipes.o
C:\lazarus\lcl\units\i386-win32\lclversion.o
C:\lazarus\fpc\2.4.2\units\i386-win32\fcl-image\fpimage.o
C:\lazarus\fpc\2.4.2\units\i386-win32\fcl-image\fpcanvas.o
C:\lazarus\fpc\2.4.2\units\i386-win32\fcl-image\fpwritebmp.o
C:\lazarus\fpc\2.4.2\units\i386-win32\fcl-image\fpwritepng.o
C:\lazarus\fpc\2.4.2\units\i386-win32\fcl-image\pngcomn.o
C:\lazarus\fpc\2.4.2\units\i386-win32\fcl-image\fpreadpnm.o
C:\lazarus\fpc\2.4.2\units\i386-win32\fcl-image\fpwritepnm.o
C:\lazarus\fpc\2.4.2\units\i386-win32\fcl-image\fpreadjpeg.o
C:\lazarus\fpc\2.4.2\units\i386-win32\fcl-image\fpwritejpeg.o
C:\lazarus\fpc\2.4.2\units\i386-win32\fcl-image\fpreadtiff.o
C:\lazarus\fpc\2.4.2\units\i386-win32\fcl-image\fptiffcmn.o
C:\lazarus\fpc\2.4.2\units\i386-win32\fcl-image\fpreadgif.o
C:\lazarus\lcl\units\i386-win32\intfgraphics.o
C:\lazarus\lcl\units\i386-win32\lclrescache.o
C:\lazarus\lcl\units\i386-win32\icnstypes.o
C:\lazarus\fpc\2.4.2\units\i386-win32\fcl-image\clipping.o
C:\lazarus\fpc\2.4.2\units\i386-win32\fcl-image\bmpcomn.o
C:\lazarus\fpc\2.4.2\units\i386-win32\fcl-image\fpimgcmn.o
C:\lazarus\fpc\2.4.2\units\i386-win32\paszlib\zstream.o
C:\lazarus\fpc\2.4.2\units\i386-win32\paszlib\zbase.o
C:\lazarus\fpc\2.4.2\units\i386-win32\paszlib\gzio.o
C:\lazarus\fpc\2.4.2\units\i386-win32\rtl\dos.o
C:\lazarus\fpc\2.4.2\units\i386-win32\hash\crc.o
C:\lazarus\fpc\2.4.2\units\i386-win32\paszlib\zdeflate.o
C:\lazarus\fpc\2.4.2\units\i386-win32\paszlib\zinflate.o
C:\lazarus\fpc\2.4.2\units\i386-win32\rtl\strings.o
C:\lazarus\fpc\2.4.2\units\i386-win32\paszlib\trees.o
C:\lazarus\fpc\2.4.2\units\i386-win32\paszlib\adler.o
C:\lazarus\fpc\2.4.2\units\i386-win32\paszlib\infblock.o
C:\lazarus\fpc\2.4.2\units\i386-win32\paszlib\infutil.o
C:\lazarus\fpc\2.4.2\units\i386-win32\paszlib\infcodes.o
C:\lazarus\fpc\2.4.2\units\i386-win32\paszlib\inftrees.o
C:\lazarus\fpc\2.4.2\units\i386-win32\paszlib\inffast.o
C:\lazarus\fpc\2.4.2\units\i386-win32\pasjpeg\jpeglib.o
C:\lazarus\fpc\2.4.2\units\i386-win32\pasjpeg\jdapimin.o
C:\lazarus\fpc\2.4.2\units\i386-win32\pasjpeg\jdatasrc.o
C:\lazarus\fpc\2.4.2\units\i386-win32\pasjpeg\jdapistd.o
C:\lazarus\fpc\2.4.2\units\i386-win32\pasjpeg\jmorecfg.o
C:\lazarus\fpc\2.4.2\units\i386-win32\pasjpeg\jdeferr.o
C:\lazarus\fpc\2.4.2\units\i386-win32\pasjpeg\jinclude.o
C:\lazarus\fpc\2.4.2\units\i386-win32\pasjpeg\jerror.o
C:\lazarus\fpc\2.4.2\units\i386-win32\pasjpeg\jmemmgr.o
C:\lazarus\fpc\2.4.2\units\i386-win32\pasjpeg\jdmarker.o
C:\lazarus\fpc\2.4.2\units\i386-win32\pasjpeg\jdinput.o
C:\lazarus\fpc\2.4.2\units\i386-win32\pasjpeg\jcomapi.o
C:\lazarus\fpc\2.4.2\units\i386-win32\pasjpeg\jutils.o
C:\lazarus\fpc\2.4.2\units\i386-win32\pasjpeg\jmemnobs.o
C:\lazarus\fpc\2.4.2\units\i386-win32\pasjpeg\jdmaster.o
C:\lazarus\fpc\2.4.2\units\i386-win32\pasjpeg\jdcolor.o
C:\lazarus\fpc\2.4.2\units\i386-win32\pasjpeg\jdsample.o
C:\lazarus\fpc\2.4.2\units\i386-win32\pasjpeg\jdpostct.o
C:\lazarus\fpc\2.4.2\units\i386-win32\pasjpeg\jddctmgr.o
C:\lazarus\fpc\2.4.2\units\i386-win32\pasjpeg\jdphuff.o
C:\lazarus\fpc\2.4.2\units\i386-win32\pasjpeg\jdhuff.o
C:\lazarus\fpc\2.4.2\units\i386-win32\pasjpeg\jdcoefct.o
C:\lazarus\fpc\2.4.2\units\i386-win32\pasjpeg\jdmainct.o
C:\lazarus\fpc\2.4.2\units\i386-win32\pasjpeg\jquant1.o
C:\lazarus\fpc\2.4.2\units\i386-win32\pasjpeg\jquant2.o
C:\lazarus\fpc\2.4.2\units\i386-win32\pasjpeg\jdmerge.o
C:\lazarus\fpc\2.4.2\units\i386-win32\pasjpeg\jdct.o
C:\lazarus\fpc\2.4.2\units\i386-win32\pasjpeg\jidctfst.o
C:\lazarus\fpc\2.4.2\units\i386-win32\pasjpeg\jidctint.o
C:\lazarus\fpc\2.4.2\units\i386-win32\pasjpeg\jidctflt.o
C:\lazarus\fpc\2.4.2\units\i386-win32\pasjpeg\jidctred.o
C:\lazarus\fpc\2.4.2\units\i386-win32\pasjpeg\jcapistd.o
C:\lazarus\fpc\2.4.2\units\i386-win32\pasjpeg\jcapimin.o
C:\lazarus\fpc\2.4.2\units\i386-win32\pasjpeg\jdatadst.o
C:\lazarus\fpc\2.4.2\units\i386-win32\pasjpeg\jcparam.o
C:\lazarus\fpc\2.4.2\units\i386-win32\pasjpeg\jcinit.o
C:\lazarus\fpc\2.4.2\units\i386-win32\pasjpeg\jcmarker.o
C:\lazarus\fpc\2.4.2\units\i386-win32\pasjpeg\jcphuff.o
C:\lazarus\fpc\2.4.2\units\i386-win32\pasjpeg\jchuff.o
C:\lazarus\fpc\2.4.2\units\i386-win32\pasjpeg\jcmaster.o
C:\lazarus\fpc\2.4.2\units\i386-win32\pasjpeg\jccolor.o
C:\lazarus\fpc\2.4.2\units\i386-win32\pasjpeg\jcsample.o
C:\lazarus\fpc\2.4.2\units\i386-win32\pasjpeg\jcprepct.o
C:\lazarus\fpc\2.4.2\units\i386-win32\pasjpeg\jcdctmgr.o
C:\lazarus\fpc\2.4.2\units\i386-win32\pasjpeg\jccoefct.o
C:\lazarus\fpc\2.4.2\units\i386-win32\pasjpeg\jcmainct.o
C:\lazarus\fpc\2.4.2\units\i386-win32\pasjpeg\jfdctint.o
C:\lazarus\fpc\2.4.2\units\i386-win32\pasjpeg\jfdctfst.o
C:\lazarus\fpc\2.4.2\units\i386-win32\pasjpeg\jfdctflt.o
C:\lazarus\fpc\2.4.2\units\i386-win32\fcl-image\fpreadbmp.o
C:\lazarus\fpc\2.4.2\units\i386-win32\fcl-image\fpreadpng.o
C:\lazarus\fpc\2.4.2\units\i386-win32\fcl-image\fpwritetiff.o
C:\lazarus\fpc\2.4.2\units\i386-win32\fcl-base\syncobjs.o
C:\lazarus\lcl\units\i386-win32\lclclasses.o
C:\lazarus\lcl\units\i386-win32\wslclclasses.o
C:\lazarus\lcl\units\i386-win32\wsimglist.o
C:\lazarus\lcl\units\i386-win32\wsproc.o
C:\lazarus\lcl\units\i386-win32\wsfactory.o
C:\lazarus\lcl\units\i386-win32\controls.o
C:\lazarus\lcl\units\i386-win32\menus.o
C:\lazarus\lcl\units\i386-win32\utrace.o
C:\lazarus\lcl\units\i386-win32\propertystorage.o
C:\lazarus\lcl\units\i386-win32\actnlist.o
C:\lazarus\fpc\2.4.2\units\i386-win32\fcl-base\rttiutils.o
C:\lazarus\fpc\2.4.2\units\i386-win32\rtl\strutils.o
C:\lazarus\lcl\units\i386-win32\wsmenus.o
C:\lazarus\lcl\units\i386-win32\customtimer.o
C:\lazarus\lcl\units\i386-win32\clipbrd.o
C:\lazarus\fpc\2.4.2\units\i386-win32\fcl-base\custapp.o
C:\lazarus\lcl\units\i386-win32\helpintfs.o
C:\lazarus\lcl\units\i386-win32\wscontrols.o
C:\lazarus\lcl\units\i386-win32\wsforms.o
C:\lazarus\lcl\units\i386-win32\win32\win32int.o
C:\lazarus\lcl\units\i386-win32\translations.o
C:\lazarus\lcl\units\i386-win32\comctrls.o
C:\lazarus\lcl\units\i386-win32\buttons.o
C:\lazarus\lcl\units\i386-win32\extctrls.o
C:\lazarus\lcl\units\i386-win32\dialogs.o
C:\lazarus\lcl\units\i386-win32\stdctrls.o
C:\lazarus\lcl\units\i386-win32\win32\win32def.o
C:\lazarus\fpc\2.4.2\units\i386-win32\winunits-base\commctrl.o
C:\lazarus\fpc\2.4.2\units\i386-win32\winunits-base\multimon.o
C:\lazarus\lcl\units\i386-win32\stringhashlist.o
C:\lazarus\lcl\units\i386-win32\lconvencoding.o
C:\lazarus\lcl\units\i386-win32\toolwin.o
C:\lazarus\lcl\units\i386-win32\extendedstrings.o
C:\lazarus\lcl\units\i386-win32\textstrings.o
C:\lazarus\lcl\units\i386-win32\wsstdctrls.o
C:\lazarus\lcl\units\i386-win32\popupnotifier.o
C:\lazarus\lcl\units\i386-win32\wsextctrls.o
C:\lazarus\lcl\units\i386-win32\imagelistcache.o
C:\lazarus\lcl\units\i386-win32\wsbuttons.o
C:\lazarus\lcl\units\i386-win32\wscomctrls.o
C:\lazarus\lcl\units\i386-win32\wstoolwin.o
C:\lazarus\lcl\units\i386-win32\buttonpanel.o
C:\lazarus\lcl\units\i386-win32\wsdialogs.o
C:\lazarus\lcl\units\i386-win32\win32\win32proc.o
C:\lazarus\lcl\units\i386-win32\win32\win32wsfactory.o
C:\lazarus\lcl\units\i386-win32\win32\win32wsbuttons.o
C:\lazarus\lcl\units\i386-win32\win32\win32wsextctrls.o
C:\lazarus\lcl\units\i386-win32\win32\win32wsmenus.o
C:\lazarus\lcl\units\i386-win32\win32\win32wsspin.o
C:\lazarus\lcl\units\i386-win32\win32\win32wsstdctrls.o
C:\lazarus\lcl\units\i386-win32\win32\win32wsdialogs.o
C:\lazarus\lcl\units\i386-win32\win32\win32themes.o
C:\lazarus\lcl\units\i386-win32\win32\win32extra.o
C:\lazarus\lcl\units\i386-win32\lclmessageglue.o
C:\lazarus\fpc\2.4.2\units\i386-win32\winunits-base\shlobj.o
C:\lazarus\lcl\units\i386-win32\calendar.o
C:\lazarus\lcl\units\i386-win32\arrow.o
C:\lazarus\lcl\units\i386-win32\spin.o
C:\lazarus\lcl\units\i386-win32\extdlgs.o
C:\lazarus\lcl\units\i386-win32\checklst.o
C:\lazarus\lcl\units\i386-win32\grids.o
C:\lazarus\lcl\units\i386-win32\wscalendar.o
C:\lazarus\lcl\units\i386-win32\wsarrow.o
C:\lazarus\lcl\units\i386-win32\wsspin.o
C:\lazarus\lcl\units\i386-win32\wsextdlgs.o
C:\lazarus\lcl\units\i386-win32\wschecklst.o
C:\lazarus\lcl\units\i386-win32\dynamicarray.o
C:\lazarus\fpc\2.4.2\units\i386-win32\fcl-xml\xmlconf.o
C:\lazarus\lcl\units\i386-win32\maskedit.o
C:\lazarus\fpc\2.4.2\units\i386-win32\fcl-xml\dom.o
C:\lazarus\fpc\2.4.2\units\i386-win32\fcl-xml\xmlread.o
C:\lazarus\fpc\2.4.2\units\i386-win32\fcl-xml\xmlwrite.o
C:\lazarus\fpc\2.4.2\units\i386-win32\fcl-xml\xmlutils.o
C:\lazarus\fpc\2.4.2\units\i386-win32\fcl-base\uriparser.o
C:\lazarus\lcl\units\i386-win32\wsgrids.o
C:\lazarus\lcl\units\i386-win32\win32\win32wsarrow.o
C:\lazarus\lcl\units\i386-win32\win32\win32wscalendar.o
C:\lazarus\lcl\units\i386-win32\win32\win32wschecklst.o
C:\lazarus\lcl\units\i386-win32\win32\win32wscomctrls.o
C:\lazarus\lcl\units\i386-win32\win32\win32wscontrols.o
C:\lazarus\lcl\units\i386-win32\win32\win32wsextdlgs.o
C:\lazarus\lcl\units\i386-win32\win32\win32wsforms.o
C:\lazarus\lcl\units\i386-win32\win32\win32wsgrids.o
C:\lazarus\lcl\units\i386-win32\win32\win32wsimglist.o
C:\lazarus\lcl\units\i386-win32\win32\win32uxtheme.o
C:\lazarus\fpc\2.4.2\units\i386-win32\winunits-base\commdlg.o
C:\lazarus\components\rtticontrols\lib\i386-win32\win32\rttictrls.o
C:\lazarus\components\rtticontrols\lib\i386-win32\win32\rttigrids.o
C:\lazarus\packager\units\i386-win32\lazaruspackageintf.o
C:\lazarus\ideintf\units\i386-win32\graphpropedits.o
C:\lazarus\ideintf\units\i386-win32\propedits.o
C:\lazarus\ideintf\units\i386-win32\propeditutils.o
C:\lazarus\ideintf\units\i386-win32\graphicpropedit.o
C:\lazarus\lcl\units\i386-win32\editbtn.o
C:\lazarus\ideintf\units\i386-win32\texttools.o
C:\lazarus\ideintf\units\i386-win32\frmselectprops.o
C:\lazarus\ideintf\units\i386-win32\stringspropeditdlg.o
C:\lazarus\ideintf\units\i386-win32\columndlg.o
C:\lazarus\ideintf\units\i386-win32\objinspstrconsts.o
C:\lazarus\ideintf\units\i386-win32\collectionpropeditform.o
C:\lazarus\lcl\units\i386-win32\calendarpopup.o
C:\lazarus\ideintf\units\i386-win32\idewindowintf.o
C:\lazarus\ideintf\units\i386-win32\ideimagesintf.o
C:\lazarus\ideintf\units\i386-win32\idedialogs.o
C:\lazarus\ideintf\units\i386-win32\objectinspector.o
C:\lazarus\ideintf\units\i386-win32\listviewpropedit.o
C:\lazarus\ideintf\units\i386-win32\imagelisteditor.o
C:\lazarus\ideintf\units\i386-win32\componenttreeview.o
C:\lazarus\ideintf\units\i386-win32\componenteditors.o
C:\lazarus\ideintf\units\i386-win32\oifavouriteproperties.o
C:\lazarus\ideintf\units\i386-win32\lazstringgridedit.o
C:\lazarus\ideintf\units\i386-win32\checklistboxeditordlg.o
C:\lazarus\ideintf\units\i386-win32\checkgroupeditordlg.o
C:\lazarus\lcl\units\i386-win32\colorbox.o
C:\Prace2\software\Lazarus\pascalscada\lib\i386-win32\commport.o
C:\Prace2\software\Lazarus\pascalscada\lib\i386-win32\commtypes.o
C:\Prace2\software\Lazarus\pascalscada\lib\i386-win32\crc16utils.o
C:\Prace2\software\Lazarus\pascalscada\lib\i386-win32\crossevent.o
C:\Prace2\software\Lazarus\pascalscada\lib\i386-win32\crosskeyevents.o
C:\Prace2\software\Lazarus\pascalscada\lib\i386-win32\hmianimation.o
C:\Prace2\software\Lazarus\pascalscada\lib\i386-win32\hmibutton.o
C:\Prace2\software\Lazarus\pascalscada\lib\i386-win32\hmicheckbox.o
C:\Prace2\software\Lazarus\pascalscada\lib\i386-win32\hmicontroldislocatoranimation.o
C:\Prace2\software\Lazarus\pascalscada\lib\i386-win32\hmidbconnection.o
C:\Prace2\software\Lazarus\pascalscada\lib\i386-win32\hmiedit.o
C:\Prace2\software\Lazarus\pascalscada\lib\i386-win32\hmilabel.o
C:\Prace2\software\Lazarus\pascalscada\lib\i386-win32\hmiprogressbar.o
C:\Prace2\software\Lazarus\pascalscada\lib\i386-win32\hmipropeditor.o
C:\Prace2\software\Lazarus\pascalscada\lib\i386-win32\hmiradiobutton.o
C:\Prace2\software\Lazarus\pascalscada\lib\i386-win32\hmiradiogroup.o
C:\Prace2\software\Lazarus\pascalscada\lib\i386-win32\hmiscrollbar.o
C:\Prace2\software\Lazarus\pascalscada\lib\i386-win32\hmitext.o
C:\Prace2\software\Lazarus\pascalscada\lib\i386-win32\hmitrackbar.o
C:\Prace2\software\Lazarus\pascalscada\lib\i386-win32\hmitypes.o
C:\Prace2\software\Lazarus\pascalscada\lib\i386-win32\hmiupdown.o
C:\Prace2\software\Lazarus\pascalscada\lib\i386-win32\hmizones.o
C:\Prace2\software\Lazarus\pascalscada\lib\i386-win32\hsstrings.o
C:\Prace2\software\Lazarus\pascalscada\lib\i386-win32\hsutils.o
C:\Prace2\software\Lazarus\pascalscada\lib\i386-win32\iboxdriver.o
C:\Prace2\software\Lazarus\pascalscada\lib\i386-win32\isotcpdriver.o
C:\Prace2\software\Lazarus\pascalscada\lib\i386-win32\lazlclversion.o
C:\Prace2\software\Lazarus\pascalscada\lib\i386-win32\linearscaleprocessor.o
C:\Prace2\software\Lazarus\pascalscada\lib\i386-win32\messagespool.o
C:\Prace2\software\Lazarus\pascalscada\lib\i386-win32\modbusdriver.o
C:\Prace2\software\Lazarus\pascalscada\lib\i386-win32\modbusserial.o
C:\Prace2\software\Lazarus\pascalscada\lib\i386-win32\modbustcp.o
C:\Prace2\software\Lazarus\pascalscada\lib\i386-win32\plcblock.o
C:\Prace2\software\Lazarus\pascalscada\lib\i386-win32\plcblockelement.o
C:\Prace2\software\Lazarus\pascalscada\lib\i386-win32\plcmemorymanager.o
C:\Prace2\software\Lazarus\pascalscada\lib\i386-win32\plcnumber.o
C:\Prace2\software\Lazarus\pascalscada\lib\i386-win32\plcstring.o
C:\Prace2\software\Lazarus\pascalscada\lib\i386-win32\plcstruct.o
C:\Prace2\software\Lazarus\pascalscada\lib\i386-win32\plcstructelement.o
C:\Prace2\software\Lazarus\pascalscada\lib\i386-win32\plctag.o
C:\Prace2\software\Lazarus\pascalscada\lib\i386-win32\plctagnumber.o
C:\Prace2\software\Lazarus\pascalscada\lib\i386-win32\protocoldriver.o
C:\Prace2\software\Lazarus\pascalscada\lib\i386-win32\protocoltypes.o
C:\Prace2\software\Lazarus\pascalscada\lib\i386-win32\protscan.o
C:\Prace2\software\Lazarus\pascalscada\lib\i386-win32\protscanupdate.o
C:\Prace2\software\Lazarus\pascalscada\lib\i386-win32\s7family.o
C:\Prace2\software\Lazarus\pascalscada\lib\i386-win32\s7types.o
C:\Prace2\software\Lazarus\pascalscada\lib\i386-win32\scadapropeditor.o
C:\Prace2\software\Lazarus\pascalscada\lib\i386-win32\scadareg.o
C:\Prace2\software\Lazarus\pascalscada\lib\i386-win32\serialport.o
C:\Prace2\software\Lazarus\pascalscada\lib\i386-win32\tag.o
C:\Prace2\software\Lazarus\pascalscada\lib\i386-win32\tagbit.o
C:\Prace2\software\Lazarus\pascalscada\lib\i386-win32\tagblock.o
C:\Prace2\software\Lazarus\pascalscada\lib\i386-win32\tagcollection.o
C:\Prace2\software\Lazarus\pascalscada\lib\i386-win32\tcp_udpport.o
C:\Prace2\software\Lazarus\pascalscada\lib\i386-win32\ubitmapper.o
C:\Prace2\software\Lazarus\pascalscada\lib\i386-win32\uelementmapper.o
C:\Prace2\software\Lazarus\pascalscada\lib\i386-win32\umodbustagbuilder.o
C:\Prace2\software\Lazarus\pascalscada\lib\i386-win32\unumerickeyboard.o
C:\Prace2\software\Lazarus\pascalscada\lib\i386-win32\us7tagbuilder.o
C:\Prace2\software\Lazarus\pascalscada\lib\i386-win32\userscale.o
C:\Prace2\software\Lazarus\pascalscada\lib\i386-win32\ustructuremapper.o
C:\Prace2\software\Lazarus\pascalscada\lib\i386-win32\uwesttagbuilder.o
C:\Prace2\software\Lazarus\pascalscada\lib\i386-win32\valueprocessor.o
C:\Prace2\software\Lazarus\pascalscada\lib\i386-win32\westasciidriver.o
C:\lazarus\fpc\2.4.2\units\i386-win32\rtl\dateutils.o
C:\Prace2\software\Lazarus\pascalscada\zeoslib\packages\lazarus\lib\i386-win32\ZConnection.o
C:\Prace2\software\Lazarus\pascalscada\zeoslib\packages\lazarus\lib\i386-win32\ZPropertyEditor.o
C:\lazarus\fpc\2.4.2\units\i386-win32\fcl-db\memds.o
C:\Prace2\software\Lazarus\pascalscada\zeoslib\packages\lazarus\lib\i386-win32\ZDataset.o
C:\lazarus\fpc\2.4.2\units\i386-win32\fcl-db\db.o
C:\Prace2\software\Lazarus\pascalscada\zeoslib\packages\lazarus\lib\i386-win32\ZAbstractConnection.o
C:\lazarus\fpc\2.4.2\units\i386-win32\rtl\fmtbcd.o
C:\lazarus\fpc\2.4.2\units\i386-win32\fcl-db\dbconst.o
C:\Prace2\software\Lazarus\pascalscada\zeoslib\packages\lazarus\lib\i386-win32\ZDbcDbLib.o
C:\Prace2\software\Lazarus\pascalscada\zeoslib\packages\lazarus\lib\i386-win32\ZDbcMySql.o
C:\Prace2\software\Lazarus\pascalscada\zeoslib\packages\lazarus\lib\i386-win32\ZDbcPostgreSql.o
C:\Prace2\software\Lazarus\pascalscada\zeoslib\packages\lazarus\lib\i386-win32\ZDbcInterbase6.o
C:\Prace2\software\Lazarus\pascalscada\zeoslib\packages\lazarus\lib\i386-win32\ZDbcSqLite.o
C:\Prace2\software\Lazarus\pascalscada\zeoslib\packages\lazarus\lib\i386-win32\ZDbcOracle.o
C:\Prace2\software\Lazarus\pascalscada\zeoslib\packages\lazarus\lib\i386-win32\ZDbcASA.o
C:\Prace2\software\Lazarus\pascalscada\zeoslib\packages\lazarus\lib\i386-win32\ZDbcIntfs.o
C:\Prace2\software\Lazarus\pascalscada\zeoslib\packages\lazarus\lib\i386-win32\ZCompatibility.o
C:\lazarus\fpc\2.4.2\units\i386-win32\winunits-base\comobj.o
C:\Prace2\software\Lazarus\pascalscada\zeoslib\packages\lazarus\lib\i386-win32\ZDbcConnection.o
C:\Prace2\software\Lazarus\pascalscada\zeoslib\packages\lazarus\lib\i386-win32\ZDbcLogging.o
C:\Prace2\software\Lazarus\pascalscada\zeoslib\packages\lazarus\lib\i386-win32\ZPlainDbLibDriver.o
C:\Prace2\software\Lazarus\pascalscada\zeoslib\packages\lazarus\lib\i386-win32\ZTokenizer.o
C:\Prace2\software\Lazarus\pascalscada\zeoslib\packages\lazarus\lib\i386-win32\ZGenericSqlAnalyser.o
C:\lazarus\fpc\2.4.2\units\i386-win32\winunits-base\comconst.o
C:\lazarus\fpc\2.4.2\units\i386-win32\winunits-base\ole2.o
C:\lazarus\fpc\2.4.2\units\i386-win32\fcl-registry\registry.o
C:\lazarus\fpc\2.4.2\units\i386-win32\fcl-base\inifiles.o
C:\Prace2\software\Lazarus\pascalscada\zeoslib\packages\lazarus\lib\i386-win32\ZClasses.o
C:\Prace2\software\Lazarus\pascalscada\zeoslib\packages\lazarus\lib\i386-win32\ZGenericSqlToken.o
C:\Prace2\software\Lazarus\pascalscada\zeoslib\packages\lazarus\lib\i386-win32\ZPlainDriver.o
C:\Prace2\software\Lazarus\pascalscada\zeoslib\packages\lazarus\lib\i386-win32\ZMessages.o
C:\Prace2\software\Lazarus\pascalscada\zeoslib\packages\lazarus\lib\i386-win32\ZCollections.o
C:\Prace2\software\Lazarus\pascalscada\zeoslib\packages\lazarus\lib\i386-win32\ZSysUtils.o
C:\Prace2\software\Lazarus\pascalscada\zeoslib\packages\lazarus\lib\i386-win32\ZSelectSchema.o
C:\Prace2\software\Lazarus\pascalscada\zeoslib\packages\lazarus\lib\i386-win32\ZVariant.o
C:\Prace2\software\Lazarus\pascalscada\zeoslib\packages\lazarus\lib\i386-win32\ZMatchPattern.o
C:\Prace2\software\Lazarus\pascalscada\zeoslib\packages\lazarus\lib\i386-win32\ZPlainLoader.o
C:\Prace2\software\Lazarus\pascalscada\zeoslib\packages\lazarus\lib\i386-win32\ZDbcMetadata.o
C:\Prace2\software\Lazarus\pascalscada\zeoslib\packages\lazarus\lib\i386-win32\ZDbcResultSetMetadata.o
C:\Prace2\software\Lazarus\pascalscada\zeoslib\packages\lazarus\lib\i386-win32\ZDbcCachedResultSet.o
C:\Prace2\software\Lazarus\pascalscada\zeoslib\packages\lazarus\lib\i386-win32\ZDbcCache.o
C:\Prace2\software\Lazarus\pascalscada\zeoslib\packages\lazarus\lib\i386-win32\ZDbcResultSet.o
C:\Prace2\software\Lazarus\pascalscada\zeoslib\packages\lazarus\lib\i386-win32\ZDbcUtils.o
C:\Prace2\software\Lazarus\pascalscada\zeoslib\packages\lazarus\lib\i386-win32\ZDbcGenericResolver.o
C:\Prace2\software\Lazarus\pascalscada\zeoslib\packages\lazarus\lib\i386-win32\ZPlainDbLibSybaseAse125.o
C:\Prace2\software\Lazarus\pascalscada\zeoslib\packages\lazarus\lib\i386-win32\ZPlainDbLibMsSql7.o
C:\Prace2\software\Lazarus\pascalscada\zeoslib\packages\lazarus\lib\i386-win32\ZDbcDbLibStatement.o
C:\Prace2\software\Lazarus\pascalscada\zeoslib\packages\lazarus\lib\i386-win32\ZDbcDbLibMsSqlMetadata.o
C:\Prace2\software\Lazarus\pascalscada\zeoslib\packages\lazarus\lib\i386-win32\ZSybaseToken.o
C:\Prace2\software\Lazarus\pascalscada\zeoslib\packages\lazarus\lib\i386-win32\ZSybaseAnalyser.o
C:\Prace2\software\Lazarus\pascalscada\zeoslib\packages\lazarus\lib\i386-win32\ZDbcDbLibSybaseMetadata.o
C:\Prace2\software\Lazarus\pascalscada\zeoslib\packages\lazarus\lib\i386-win32\ZDbcStatement.o
C:\Prace2\software\Lazarus\pascalscada\zeoslib\packages\lazarus\lib\i386-win32\ZDbcDbLibUtils.o
C:\Prace2\software\Lazarus\pascalscada\zeoslib\packages\lazarus\lib\i386-win32\ZDbcDbLibResultSet.o
C:\Prace2\software\Lazarus\pascalscada\zeoslib\packages\lazarus\lib\i386-win32\ZPlainMySqlDriver.o
C:\Prace2\software\Lazarus\pascalscada\zeoslib\packages\lazarus\lib\i386-win32\ZPlainMySqlConstants.o
C:\Prace2\software\Lazarus\pascalscada\zeoslib\packages\lazarus\lib\i386-win32\ZDbcMySqlStatement.o
C:\Prace2\software\Lazarus\pascalscada\zeoslib\packages\lazarus\lib\i386-win32\ZMySqlToken.o
C:\Prace2\software\Lazarus\pascalscada\zeoslib\packages\lazarus\lib\i386-win32\ZDbcMySqlUtils.o
C:\Prace2\software\Lazarus\pascalscada\zeoslib\packages\lazarus\lib\i386-win32\ZDbcMySqlMetadata.o
C:\Prace2\software\Lazarus\pascalscada\zeoslib\packages\lazarus\lib\i386-win32\ZMySqlAnalyser.o
C:\Prace2\software\Lazarus\pascalscada\zeoslib\packages\lazarus\lib\i386-win32\ZDbcMySqlResultSet.o
C:\Prace2\software\Lazarus\pascalscada\zeoslib\packages\lazarus\lib\i386-win32\ZPlainPostgreSqlDriver.o
C:\Prace2\software\Lazarus\pascalscada\zeoslib\packages\lazarus\lib\i386-win32\ZDbcPostgreSqlStatement.o
C:\Prace2\software\Lazarus\pascalscada\zeoslib\packages\lazarus\lib\i386-win32\ZDbcPostgreSqlUtils.o
C:\Prace2\software\Lazarus\pascalscada\zeoslib\packages\lazarus\lib\i386-win32\ZDbcPostgreSqlMetadata.o
C:\Prace2\software\Lazarus\pascalscada\zeoslib\packages\lazarus\lib\i386-win32\ZPostgreSqlToken.o
C:\Prace2\software\Lazarus\pascalscada\zeoslib\packages\lazarus\lib\i386-win32\ZPostgreSqlAnalyser.o
C:\Prace2\software\Lazarus\pascalscada\zeoslib\packages\lazarus\lib\i386-win32\ZDbcPostgreSqlResultSet.o
C:\Prace2\software\Lazarus\pascalscada\zeoslib\packages\lazarus\lib\i386-win32\ZPlainFirebirdDriver.o
C:\Prace2\software\Lazarus\pascalscada\zeoslib\packages\lazarus\lib\i386-win32\ZPlainFirebirdInterbaseConstants.o
C:\Prace2\software\Lazarus\pascalscada\zeoslib\packages\lazarus\lib\i386-win32\ZDbcInterbase6Utils.o
C:\Prace2\software\Lazarus\pascalscada\zeoslib\packages\lazarus\lib\i386-win32\ZDbcInterbase6Statement.o
C:\Prace2\software\Lazarus\pascalscada\zeoslib\packages\lazarus\lib\i386-win32\ZDbcInterbase6Metadata.o
C:\Prace2\software\Lazarus\pascalscada\zeoslib\packages\lazarus\lib\i386-win32\ZInterbaseToken.o
C:\Prace2\software\Lazarus\pascalscada\zeoslib\packages\lazarus\lib\i386-win32\ZInterbaseAnalyser.o
C:\Prace2\software\Lazarus\pascalscada\zeoslib\packages\lazarus\lib\i386-win32\ZDbcInterbase6ResultSet.o
C:\Prace2\software\Lazarus\pascalscada\zeoslib\packages\lazarus\lib\i386-win32\ZPlainSqLiteDriver.o
C:\Prace2\software\Lazarus\pascalscada\zeoslib\packages\lazarus\lib\i386-win32\ZDbcSqLiteStatement.o
C:\Prace2\software\Lazarus\pascalscada\zeoslib\packages\lazarus\lib\i386-win32\ZSqLiteToken.o
C:\Prace2\software\Lazarus\pascalscada\zeoslib\packages\lazarus\lib\i386-win32\ZDbcSqLiteUtils.o
C:\Prace2\software\Lazarus\pascalscada\zeoslib\packages\lazarus\lib\i386-win32\ZDbcSqLiteMetadata.o
C:\Prace2\software\Lazarus\pascalscada\zeoslib\packages\lazarus\lib\i386-win32\ZSqLiteAnalyser.o
C:\Prace2\software\Lazarus\pascalscada\zeoslib\packages\lazarus\lib\i386-win32\ZDbcSqLiteResultSet.o
C:\Prace2\software\Lazarus\pascalscada\zeoslib\packages\lazarus\lib\i386-win32\ZPlainOracleDriver.o
C:\Prace2\software\Lazarus\pascalscada\zeoslib\packages\lazarus\lib\i386-win32\ZPlainOracle9i.o
C:\Prace2\software\Lazarus\pascalscada\zeoslib\packages\lazarus\lib\i386-win32\ZDbcOracleStatement.o
C:\Prace2\software\Lazarus\pascalscada\zeoslib\packages\lazarus\lib\i386-win32\ZDbcOracleUtils.o
C:\Prace2\software\Lazarus\pascalscada\zeoslib\packages\lazarus\lib\i386-win32\ZDbcOracleMetadata.o
C:\Prace2\software\Lazarus\pascalscada\zeoslib\packages\lazarus\lib\i386-win32\ZOracleToken.o
C:\Prace2\software\Lazarus\pascalscada\zeoslib\packages\lazarus\lib\i386-win32\ZOracleAnalyser.o
C:\Prace2\software\Lazarus\pascalscada\zeoslib\packages\lazarus\lib\i386-win32\ZDbcOracleResultSet.o
C:\Prace2\software\Lazarus\pascalscada\zeoslib\packages\lazarus\lib\i386-win32\ZPlainASADriver.o
C:\Prace2\software\Lazarus\pascalscada\zeoslib\packages\lazarus\lib\i386-win32\ZPlainASA7.o
C:\Prace2\software\Lazarus\pascalscada\zeoslib\packages\lazarus\lib\i386-win32\ZPlainASA8.o
C:\Prace2\software\Lazarus\pascalscada\zeoslib\packages\lazarus\lib\i386-win32\ZPlainASA9.o
C:\Prace2\software\Lazarus\pascalscada\zeoslib\packages\lazarus\lib\i386-win32\ZDbcASAMetadata.o
C:\Prace2\software\Lazarus\pascalscada\zeoslib\packages\lazarus\lib\i386-win32\ZDbcASAStatement.o
C:\Prace2\software\Lazarus\pascalscada\zeoslib\packages\lazarus\lib\i386-win32\ZDbcASAUtils.o
C:\Prace2\software\Lazarus\pascalscada\zeoslib\packages\lazarus\lib\i386-win32\ZDbcASAResultSet.o
C:\Prace2\software\Lazarus\pascalscada\zeoslib\packages\lazarus\lib\i386-win32\ZAbstractRODataset.o
C:\Prace2\software\Lazarus\pascalscada\zeoslib\packages\lazarus\lib\i386-win32\ZSequence.o
C:\Prace2\software\Lazarus\pascalscada\zeoslib\packages\lazarus\lib\i386-win32\ZSqlStrings.o
C:\Prace2\software\Lazarus\pascalscada\zeoslib\packages\lazarus\lib\i386-win32\ZExpression.o
C:\Prace2\software\Lazarus\pascalscada\zeoslib\packages\lazarus\lib\i386-win32\ZDatasetUtils.o
C:\Prace2\software\Lazarus\pascalscada\zeoslib\packages\lazarus\lib\i386-win32\ZSqlProcessor.o
C:\Prace2\software\Lazarus\pascalscada\zeoslib\packages\lazarus\lib\i386-win32\ZExprParser.o
C:\Prace2\software\Lazarus\pascalscada\zeoslib\packages\lazarus\lib\i386-win32\ZExprToken.o
C:\Prace2\software\Lazarus\pascalscada\zeoslib\packages\lazarus\lib\i386-win32\ZVariables.o
C:\Prace2\software\Lazarus\pascalscada\zeoslib\packages\lazarus\lib\i386-win32\ZFunctions.o
C:\Prace2\software\Lazarus\pascalscada\zeoslib\packages\lazarus\lib\i386-win32\ZFunctionsMath.o
C:\Prace2\software\Lazarus\pascalscada\zeoslib\packages\lazarus\lib\i386-win32\ZFunctionsDateTime.o
C:\Prace2\software\Lazarus\pascalscada\zeoslib\packages\lazarus\lib\i386-win32\ZFunctionsStrings.o
C:\Prace2\software\Lazarus\pascalscada\zeoslib\packages\lazarus\lib\i386-win32\ZFunctionsConvert.o
C:\Prace2\software\Lazarus\pascalscada\zeoslib\packages\lazarus\lib\i386-win32\ZFunctionsOther.o
C:\Prace2\software\Lazarus\pascalscada\zeoslib\packages\lazarus\lib\i386-win32\ZStreamBlob.o
C:\Prace2\software\Lazarus\pascalscada\zeoslib\packages\lazarus\lib\i386-win32\ZAbstractDataset.o
C:\Prace2\software\Lazarus\pascalscada\zeoslib\packages\lazarus\lib\i386-win32\ZSqlUpdate.o
C:\Prace2\software\Lazarus\pascalscada\zeoslib\packages\lazarus\lib\i386-win32\ZScriptParser.o
C:\Prace2\software\Lazarus\pascalscada\zeoslib\packages\lazarus\lib\i386-win32\ZGroupedConnection.o
C:\Prace2\software\Lazarus\pascalscada\zeoslib\packages\lazarus\lib\i386-win32\ZConnectionGroup.o
C:\Prace2\software\Lazarus\pascalscada\zeoslib\packages\lazarus\lib\i386-win32\ZSqlMetadata.o
C:\Prace2\software\Lazarus\pascalscada\zeoslib\packages\lazarus\lib\i386-win32\ZAbstractTable.o
C:\Prace2\software\Lazarus\pascalscada\lib\i386-win32\socket_types.o
C:\lazarus\fpc\2.4.2\units\i386-win32\rtl\winsock.o
C:\Prace2\software\Lazarus\pascalscada\lib\i386-win32\sockets_w32_w64.o
C:\Prace2\software\Lazarus\pascalscada\zeoslib\packages\lazarus\lib\i386-win32\ZComponentReg.o
C:\Prace2\software\Lazarus\pascalscada\zeoslib\packages\lazarus\lib\i386-win32\ZUpdateSqlEditor.o
C:\Prace2\software\Lazarus\pascalscada\zeoslib\packages\lazarus\lib\i386-win32\ZStoredProcedure.o
C:\Prace2\software\Lazarus\pascalscada\zeoslib\packages\lazarus\lib\i386-win32\ZSqlMonitor.o
C:\Prace2\software\Lazarus\pascalscada\zeoslib\packages\lazarus\lib\i386-win32\ZIBEventAlerter.o
C:\Prace2\software\Lazarus\pascalscada\zeoslib\packages\lazarus\lib\i386-win32\ZPgEventAlerter.o
C:\lazarus\lcl\units\i386-win32\dbgrids.o
C:\lazarus\lcl\units\i386-win32\dbctrls.o
C:\lazarus\components\tachart\lib\i386-win32\win32\tagraph.o
C:\lazarus\components\lazreport\source\lib\i386-win32\lr_class.o
C:\lazarus\components\lazreport\source\lib\i386-win32\lr_dbset.o
C:\lazarus\components\lazreport\source\lib\i386-win32\lr_desgn.o
C:\lazarus\fpc\2.4.2\units\i386-win32\fcl-db\dbf.o
C:\lazarus\fpc\2.4.2\units\i386-win32\fcl-db\ibconnection.o
C:\lazarus\fpc\2.4.2\units\i386-win32\fcl-db\sqldb.o
C:\lazarus\components\lazreport\source\lib\i386-win32\lr_dset.o
C:\lazarus\lcl\units\i386-win32\chart.o
C:\lazarus\components\tachart\lib\i386-win32\win32\tachartutils.o
C:\lazarus\components\tachart\lib\i386-win32\win32\tatypes.o
C:\lazarus\components\tachart\lib\i386-win32\win32\talegend.o
C:\lazarus\components\tachart\lib\i386-win32\win32\tachartaxis.o
C:\lazarus\components\tachart\lib\i386-win32\win32\tacustomsource.o
C:\lazarus\components\tachart\lib\i386-win32\win32\tadrawutils.o
C:\lazarus\components\tachart\lib\i386-win32\win32\tatransformations.o
C:\lazarus\components\tachart\lib\i386-win32\win32\tasubcomponentseditor.o
C:\lazarus\components\tachart\lib\i386-win32\win32\tasources.o
C:\lazarus\fpc\2.4.2\units\i386-win32\fcl-base\maskutils.o
C:\lazarus\lcl\units\i386-win32\printers.o
C:\lazarus\components\printers\lib\i386-win32\win32\osprinters.o
C:\lazarus\components\lazreport\source\lib\i386-win32\lr_view.o
C:\lazarus\components\lazreport\source\lib\i386-win32\lr_pars.o
C:\lazarus\components\lazreport\source\lib\i386-win32\lr_intrp.o
C:\lazarus\components\lazreport\source\lib\i386-win32\lr_dbrel.o
C:\lazarus\components\lazreport\source\lib\i386-win32\lr_const.o
C:\lazarus\fpc\2.4.2\units\i386-win32\winunits-base\winver.o
C:\lazarus\components\printers\lib\i386-win32\win32\winutilprn.o
C:\lazarus\components\lazreport\source\lib\i386-win32\lr_prntr.o
C:\lazarus\components\lazreport\source\lib\i386-win32\lr_srch.o
C:\lazarus\components\lazreport\source\lib\i386-win32\lr_prdlg.o
C:\lazarus\components\lazreport\source\lib\i386-win32\lr_fmted.o
C:\lazarus\components\lazreport\source\lib\i386-win32\lr_progr.o
C:\lazarus\components\lazreport\source\lib\i386-win32\lr_utils.o
C:\lazarus\components\printers\lib\i386-win32\win32\printersdlgs.o
C:\lazarus\components\lazreport\source\lib\i386-win32\lr_color.o
C:\lazarus\components\lazreport\source\lib\i386-win32\lr_edit.o
C:\lazarus\components\lazreport\source\lib\i386-win32\lr_insp.o
C:\lazarus\components\lazreport\source\lib\i386-win32\lr_propedit.o
C:\lazarus\components\synedit\units\i386-win32\synedit.o
C:\lazarus\components\synedit\units\i386-win32\synhighlighterpas.o
C:\lazarus\components\synedit\units\i386-win32\synedittypes.o
C:\lazarus\components\synedit\units\i386-win32\syneditsearch.o
C:\lazarus\components\synedit\units\i386-win32\syneditkeycmds.o
C:\lazarus\components\synedit\units\i386-win32\syneditmousecmds.o
C:\lazarus\components\synedit\units\i386-win32\syneditmiscprocs.o
C:\lazarus\components\synedit\units\i386-win32\syneditpointclasses.o
C:\lazarus\components\synedit\units\i386-win32\synbeautifier.o
C:\lazarus\components\synedit\units\i386-win32\syneditmarks.o
C:\lazarus\components\synedit\units\i386-win32\syneditmarkup.o
C:\lazarus\components\synedit\units\i386-win32\syneditmarkuphighall.o
C:\lazarus\components\synedit\units\i386-win32\syneditmarkupbracket.o
C:\lazarus\components\synedit\units\i386-win32\syneditmarkupwordgroup.o
C:\lazarus\components\synedit\units\i386-win32\syneditmarkupctrlmouselink.o
C:\lazarus\components\synedit\units\i386-win32\syneditmarkupspecialline.o
C:\lazarus\components\synedit\units\i386-win32\syneditmarkupselection.o
C:\lazarus\components\synedit\units\i386-win32\synedittextbase.o
C:\lazarus\components\synedit\units\i386-win32\synedittexttrimmer.o
C:\lazarus\components\synedit\units\i386-win32\syneditfoldedview.o
C:\lazarus\components\synedit\units\i386-win32\synedittexttabexpander.o
C:\lazarus\components\synedit\units\i386-win32\synedittextdoublewidthchars.o
C:\lazarus\components\synedit\units\i386-win32\syngutterbase.o
C:\lazarus\components\synedit\units\i386-win32\syngutter.o
C:\lazarus\components\synedit\units\i386-win32\synguttercodefolding.o
C:\lazarus\components\synedit\units\i386-win32\syngutterchanges.o
C:\lazarus\components\synedit\units\i386-win32\syngutterlinenumber.o
C:\lazarus\components\synedit\units\i386-win32\synguttermarks.o
C:\lazarus\components\synedit\units\i386-win32\syngutterlineoverview.o
C:\lazarus\components\synedit\units\i386-win32\syneditmiscclasses.o
C:\lazarus\components\synedit\units\i386-win32\synedittextbuffer.o
C:\lazarus\components\synedit\units\i386-win32\synedithighlighter.o
C:\lazarus\components\synedit\units\i386-win32\syntextdrawer.o
C:\lazarus\components\synedit\units\i386-win32\syneditlines.o
C:\lazarus\lcl\units\i386-win32\stdactns.o
C:\lazarus\components\synedit\units\i386-win32\synregexpr.o
C:\lazarus\components\synedit\units\i386-win32\syneditstrconst.o
C:\lazarus\components\synedit\units\i386-win32\synedithighlighterfoldbase.o
C:\lazarus\lcl\units\i386-win32\graphutil.o
C:\lazarus\components\lazreport\source\lib\i386-win32\lr_var.o
C:\lazarus\components\lazreport\source\lib\i386-win32\lr_flds.o
C:\lazarus\components\lazreport\source\lib\i386-win32\lr_expres.o
C:\lazarus\components\lazreport\source\lib\i386-win32\lr_pgopt.o
C:\lazarus\components\lazreport\source\lib\i386-win32\lr_gedit.o
C:\lazarus\components\lazreport\source\lib\i386-win32\lr_templ.o
C:\lazarus\components\lazreport\source\lib\i386-win32\lr_newrp.o
C:\lazarus\components\lazreport\source\lib\i386-win32\lr_dsopt.o
C:\lazarus\components\lazreport\source\lib\i386-win32\lr_hilit.o
C:\lazarus\components\lazreport\source\lib\i386-win32\lr_dopt.o
C:\lazarus\components\lazreport\source\lib\i386-win32\lr_ev_ed.o
C:\lazarus\components\lazreport\source\lib\i386-win32\lr_bnded.o
C:\lazarus\components\lazreport\source\lib\i386-win32\lr_vbnd.o
C:\lazarus\components\lazreport\source\lib\i386-win32\lr_btyp.o
C:\lazarus\components\lazreport\source\lib\i386-win32\lr_grped.o
C:\lazarus\components\lazreport\source\lib\i386-win32\lr_about.o
C:\lazarus\components\lazreport\source\lib\i386-win32\lr_iflds.o
C:\lazarus\components\lazreport\source\lib\i386-win32\lr_vared.o
C:\lazarus\components\lazreport\source\lib\i386-win32\lr_funct_editor_unit.o
C:\lazarus\components\lazreport\source\lib\i386-win32\lr_funct_editor_unit1.o
C:\lazarus\fpc\2.4.2\units\i386-win32\fcl-db\dbf_common.o
C:\lazarus\fpc\2.4.2\units\i386-win32\fcl-db\dbf_dbffile.o
C:\lazarus\fpc\2.4.2\units\i386-win32\fcl-db\dbf_parser.o
C:\lazarus\fpc\2.4.2\units\i386-win32\fcl-db\dbf_prsdef.o
C:\lazarus\fpc\2.4.2\units\i386-win32\fcl-db\dbf_cursor.o
C:\lazarus\fpc\2.4.2\units\i386-win32\fcl-db\dbf_fields.o
C:\lazarus\fpc\2.4.2\units\i386-win32\fcl-db\dbf_pgfile.o
C:\lazarus\fpc\2.4.2\units\i386-win32\fcl-db\dbf_idxfile.o
C:\lazarus\fpc\2.4.2\units\i386-win32\fcl-db\dbf_memo.o
C:\lazarus\fpc\2.4.2\units\i386-win32\fcl-db\dbf_str.o
C:\lazarus\fpc\2.4.2\units\i386-win32\fcl-db\dbf_collate.o
C:\lazarus\fpc\2.4.2\units\i386-win32\fcl-db\dbf_prscore.o
C:\lazarus\fpc\2.4.2\units\i386-win32\fcl-db\dbf_prssupp.o
C:\lazarus\fpc\2.4.2\units\i386-win32\fcl-db\dbf_lang.o
C:\lazarus\fpc\2.4.2\units\i386-win32\fcl-db\dbf_idxcur.o
C:\lazarus\fpc\2.4.2\units\i386-win32\fcl-db\bufdataset.o
C:\lazarus\fpc\2.4.2\units\i386-win32\ibase\ibase60dyn.o
C:\lazarus\fpc\2.4.2\units\i386-win32\fcl-db\sqlscript.o
C:\lazarus\fpc\2.4.2\units\i386-win32\fcl-db\bufdataset_parser.o
C:\lazarus\fpc\2.4.2\units\i386-win32\rtl\dynlibs.o
C:\lazarus\components\tachart\lib\i386-win32\win32\tacustomseries.o
C:\lazarus\components\tachart\lib\i386-win32\win32\tadbsource.o
C:\lazarus\components\tachart\lib\i386-win32\win32\taseries.o
C:\lazarus\components\tachart\lib\i386-win32\win32\taserieseditor.o
C:\lazarus\components\tachart\lib\i386-win32\win32\tatools.o
C:\lazarus\components\tachart\lib\i386-win32\win32\tamultiseries.o
C:\lazarus\components\tachart\lib\i386-win32\win32\tastyles.o
C:\lazarus\components\tachart\lib\i386-win32\win32\tafuncseries.o
C:\lazarus\components\tachart\lib\i386-win32\win32\talegendpanel.o
C:\lazarus\components\tachart\lib\i386-win32\win32\taradialseries.o
C:\lazarus\components\memds\lib\i386-win32\win32\frmselectdataset.o
C:\lazarus\components\tdbf\lib\i386-win32\win32\registerdbf.o
C:\lazarus\components\lazreport\source\lib\i386-win32\lr_barc.o
C:\lazarus\components\lazreport\source\lib\i386-win32\lr_e_csv.o
C:\lazarus\components\lazreport\source\lib\i386-win32\lr_e_gen.o
C:\lazarus\components\lazreport\source\lib\i386-win32\lr_e_htm.o
C:\lazarus\components\lazreport\source\lib\i386-win32\lr_e_txt.o
C:\lazarus\components\lazreport\source\lib\i386-win32\lr_pgrid.o
C:\lazarus\components\lazreport\source\lib\i386-win32\lr_register.o
C:\lazarus\components\lazreport\source\lib\i386-win32\lr_rrect.o
C:\lazarus\components\lazreport\source\lib\i386-win32\lr_shape.o
C:\lazarus\components\lazreport\source\lib\i386-win32\barcode.o
C:\lazarus\components\lazreport\source\lib\i386-win32\lr_chbox.o
C:\lazarus\fpc\2.4.2\units\i386-win32\rtl\sysinitpas.o
)
GROUP(
C:\lazarus\fpc\2.4.2\units\i386-win32\rtl\libimpsystem.a
C:\lazarus\fpc\2.4.2\units\i386-win32\rtl\libimpfpintres.a
C:\lazarus\fpc\2.4.2\units\i386-win32\rtl\libimpsysutils.a
C:\lazarus\fpc\2.4.2\units\i386-win32\rtl\libimpwindows.a
C:\lazarus\lcl\units\i386-win32\libimplclintf.a
C:\lazarus\fpc\2.4.2\units\i386-win32\winunits-base\libimpshellapi.a
C:\lazarus\fpc\2.4.2\units\i386-win32\winunits-base\libimpactivex.a
C:\lazarus\fpc\2.4.2\units\i386-win32\rtl\libimpvarutils.a
C:\lazarus\fpc\2.4.2\units\i386-win32\rtl\libimpdos.a
C:\lazarus\fpc\2.4.2\units\i386-win32\winunits-base\libimpcommctrl.a
C:\lazarus\fpc\2.4.2\units\i386-win32\winunits-base\libimpshlobj.a
C:\lazarus\lcl\units\i386-win32\win32\libimpwin32wsforms.a
C:\lazarus\fpc\2.4.2\units\i386-win32\winunits-base\libimpcommdlg.a
C:\lazarus\fpc\2.4.2\units\i386-win32\rtl\libimpwinsock.a
C:\lazarus\components\printers\lib\i386-win32\win32\libimpwinutilprn.a
C:\lazarus\fpc\2.4.2\units\i386-win32\rtl\libimpsysinitpas.a
)
SEARCH_DIR("/usr/i686-pc-cygwin/lib"); SEARCH_DIR("/usr/lib"); SEARCH_DIR("/usr/lib/w32api");
OUTPUT_FORMAT(pei-i386)
ENTRY(_mainCRTStartup)
SECTIONS
{
  . = SIZEOF_HEADERS;
  . = ALIGN(__section_alignment__);
  .text  __image_base__ + ( __section_alignment__ < 0x1000 ? . : __section_alignment__ ) :
  {
    *(.init)
    *(.text .stub .text.* .gnu.linkonce.t.*)
    *(SORT(.text$*))
     ___CTOR_LIST__ = .; __CTOR_LIST__ = . ;
			LONG (-1);*(.ctors); *(.ctor); *(SORT(.ctors.*));  LONG (0);
     ___DTOR_LIST__ = .; __DTOR_LIST__ = . ;
			LONG (-1); *(.dtors); *(.dtor); *(SORT(.dtors.*));  LONG (0);
     *(.fini)
    PROVIDE (etext = .);
    *(.gcc_except_table)
  }
  .data BLOCK(__section_alignment__) :
  {
    __data_start__ = . ;
    *(.data .data.* .gnu.linkonce.d.* .fpc*)
    *(.data2)
    *(SORT(.data$*))
    __data_end__ = . ;
    *(.data_cygwin_nocopy)
  }
  .rdata BLOCK(__section_alignment__) :
  {
    *(.rdata)
    *(.rodata .rodata.* .gnu.linkonce.r.*)
    *(SORT(.rdata$*))
    *(.eh_frame)
    ___RUNTIME_PSEUDO_RELOC_LIST__ = .;
    __RUNTIME_PSEUDO_RELOC_LIST__ = .;
    *(.rdata_runtime_pseudo_reloc)
    ___RUNTIME_PSEUDO_RELOC_LIST_END__ = .;
    __RUNTIME_PSEUDO_RELOC_LIST_END__ = .;
  }
  .pdata BLOCK(__section_alignment__) : { *(.pdata) }
  .bss BLOCK(__section_alignment__) :
  {
    __bss_start__ = . ;
    *(.bss .bss.* .gnu.linkonce.b.*)
    *(SORT(.bss$*))
    *(COMMON)
    __bss_end__ = . ;
  }
  .edata BLOCK(__section_alignment__) : { *(.edata) }
  .idata BLOCK(__section_alignment__) :
  {
    SORT(*)(.idata$2)
    SORT(*)(.idata$3)
    /* These zeroes mark the end of the import list.  */
    LONG (0); LONG (0); LONG (0); LONG (0); LONG (0);
    SORT(*)(.idata$4)
    SORT(*)(.idata$5)
    SORT(*)(.idata$6)
    SORT(*)(.idata$7)
  }
  .CRT BLOCK(__section_alignment__) :
  {
    ___crt_xc_start__ = . ;
    *(SORT(.CRT$XC*))  /* C initialization */
    ___crt_xc_end__ = . ;
    ___crt_xi_start__ = . ;
    *(SORT(.CRT$XI*))  /* C++ initialization */
    ___crt_xi_end__ = . ;
    ___crt_xl_start__ = . ;
    *(SORT(.CRT$XL*))  /* TLS callbacks */
    /* ___crt_xl_end__ is defined in the TLS Directory support code */
    ___crt_xp_start__ = . ;
    *(SORT(.CRT$XP*))  /* Pre-termination */
    ___crt_xp_end__ = . ;
    ___crt_xt_start__ = . ;
    *(SORT(.CRT$XT*))  /* Termination */
    ___crt_xt_end__ = . ;
  }
  .tls BLOCK(__section_alignment__) :
  {
    ___tls_start__ = . ;
    *(.tls .tls.*)
    *(.tls$)
    *(SORT(.tls$*))
    ___tls_end__ = . ;
  }
  .rsrc BLOCK(__section_alignment__) :
  {
    *(.rsrc)
    *(SORT(.rsrc$*))
  }
  .reloc BLOCK(__section_alignment__) : { *(.reloc) }
  .stab BLOCK(__section_alignment__) (NOLOAD) : { *(.stab) }
  .stabstr BLOCK(__section_alignment__) (NOLOAD) : { *(.stabstr) }
  .debug_aranges BLOCK(__section_alignment__) (NOLOAD) : { *(.debug_aranges) }
  .debug_pubnames BLOCK(__section_alignment__) (NOLOAD) : { *(.debug_pubnames) }
  .debug_info BLOCK(__section_alignment__) (NOLOAD) : { *(.debug_info) *(.gnu.linkonce.wi.*) }
  .debug_abbrev BLOCK(__section_alignment__) (NOLOAD) : { *(.debug_abbrev) }
  .debug_line BLOCK(__section_alignment__) (NOLOAD) : { *(.debug_line) }
  .debug_frame BLOCK(__section_alignment__) (NOLOAD) : { *(.debug_frame) }
  .debug_str BLOCK(__section_alignment__) (NOLOAD) : { *(.debug_str) }
  .debug_loc BLOCK(__section_alignment__) (NOLOAD) : { *(.debug_loc) }
  .debug_macinfo BLOCK(__section_alignment__) (NOLOAD) : { *(.debug_macinfo) }
  .debug_weaknames BLOCK(__section_alignment__) (NOLOAD) : { *(.debug_weaknames) }
  .debug_funcnames BLOCK(__section_alignment__) (NOLOAD) : { *(.debug_funcnames) }
  .debug_typenames BLOCK(__section_alignment__) (NOLOAD) : { *(.debug_typenames) }
  .debug_varnames BLOCK(__section_alignment__) (NOLOAD) : { *(.debug_varnames) }
  .debug_ranges BLOCK(__section_alignment__) (NOLOAD) : { *(.debug_ranges) }
}
